{
  "name": "rentq",
  "version": "1.0.0",
  "description": "Scheduling App",
  "main": "index.js",
  "scripts": {
    "dev": "webpack --mode development",
    "build": "webpack --mode production",
    "start": "webpack-dev-server --mode development --open"
  },
  "author": "Max Vallee",
  "license": "ISC",
  "devDependencies": {
    "@babel/core": "^7.6.4",
    "@babel/preset-env": "^7.6.3",
    "babel-core": "^6.26.3",
    "babel-loader": "^8.0.6",
    "babel-preset-env": "^1.7.0",
    "html-webpack-plugin": "^3.2.0",
    "webpack": "^4.41.1",
    "webpack-cli": "^3.3.9",
    "webpack-dev-server": "^3.8.2"
  },
  "dependencies": {
    "@babel/polyfill": "^7.6.0",
    "@material/floating-label": "^4.0.0",
    "@material/line-ripple": "^4.0.0",
    "@material/textfield": "^4.0.0",
    "axios": "^0.19.0",
    "babel-polyfill": "^6.26.0",
    "moment": "^2.24.0",
    "moment-range": "^4.0.2",
    "moment-timezone": "^0.5.27"
  }
}
